20 101 119
148 185 125
156 98 122
68 130 122
106 8 119
54 173 125
135 86 122
144 101 122
199 28 125
92 83 111
57 168 122
187 7 125
24 42 112
183 11 125
161 80 122
162 130 117
181 58 125
63 85 116
155 131 117
164 59 122
88 16 116
181 21 125
51 74 116
72 48 113
51 163 122
81 107 119
80 66 116
114 103 114
57 45 113
113 167 122
124 73 119
96 103 119
81 108 119
137 34 122
188 99 125
43 25 112
64 22 113
45 115 119
45 66 113
112 96 119
179 142 125
1 57 113
6 64 113
109 63 119
108 20 119
28 31 107
42 73 116
83 122 119
131 19 122
106 117 114
67 98 119
141 131 91
69 136 122
195 114 125
151 55 122
8 78 116
197 159 125
84 152 122
22 192 125
164 129 122
161 142 117
109 2 119
13 192 125
73 93 116
160 128 122
160 176 125
24 49 112
55 93 116
134 48 122
156 84 122
53 163 122
111 48 119
70 195 125
199 91 125
185 162 125
170 145 117
52 27 112
96 14 116
168 118 122
107 126 114
45 65 113
51 18 112
113 105 114
110 197 125
153 14 122
79 155 122
126 189 125
1 196 125
132 149 117
85 116 119
59 3 113
9 110 119
30 54 113
124 197 125
171 29 125
72 14 113
43 122 119
183 105 125
25 91 116
100 127 114
105 128 114
80 29 116
66 30 113
174 197 120
179 8 125
61 187 125
10 19 21
96 190 125
72 169 122
136 42 122
147 6 122
5 189 125
77 187 125
42 51 105
27 92 116
178 81 125
169 6 122
59 184 125
187 32 125
180 114 125
39 190 125
99 199 125
8 144 122
188 29 125
111 122 96
70 56 108
77 25 116
194 153 125
10 186 125
2 187 125
76 129 122
66 194 125
85 75 111
177 70 125
106 105 39
133 94 122
93 30 116
91 50 116
174 27 125
79 33 116
148 98 122
89 174 125
122 31 119
125 132 122
15 77 116
67 40 113
155 133 117
33 38 27
6 159 122
57 61 33
62 189 125
154 154 24
169 194 125
154 91 122
20 31 112
123 117 96
128 161 122
40 49 110
192 114 125
130 156 117
190 196 120
146 94 122
77 128 119
81 32 116
85 138 122
92 146 122
75 195 125
48 193 125
138 201 125
82 107 119
181 155 125
173 108 125
114 11 119
106 54 119
125 34 119
9 63 113
179 154 125
156 5 122
80 36 116
36 114 119
123 78 119
58 147 122
21 55 113
139 158 117
55 170 122
63 185 125
123 186 125
91 36 116
196 146 125
89 119 119
129 47 122
182 107 125
150 86 122
111 179 125
71 96 116
91 193 125
173 98 125
89 144 122
153 26 122
100 157 122
